363111	120118	1010798	Le Porteur d’iau			
326280	317300	1006165	La Dame d’intrigue	ou le Riche vilain		
308477	149351	1005806	La Bohémienne			
320486	168679	1001688	Ballet extravagant			
320488	168679	1001688	Ballet extravagant			
154711	154708	1000066	Abailard et Héloïse			
148439	148436	1000102	Acanthe et Cydippe			
134757	134754	1000114	Achille dans l’île de Sycros			
156659	156656	1000120	Achille reconnu par Ulysse dans l’île de Sycros			
135884	135882	1000143	Addoul			
167851	167848	1000385	Amalazonte			
146990	146987	1012132	Les Amants malheureux	ou le Compte de Comminge		
151587	151585	1000407	Amélie et Montrose			
138245	138242	1004077	L’Ami de la cour			
138263	138260	1000414	Aminte			
152508	152505	1004088	L’Aminte de Tasse			
167235	167232	1004098	L’Amitié et l’amour hermites			
158034	158031	1004167	L’Amour et l’hyment			
151393	126005	1004169	L’Amour et l’intérêt			
167429	167426	1004188	L’Amour et Psyché			
151692	124059	1004226	L’Amour naïf			
147308	147306	1012175	Les Amours			
135165	111363	1012239	Les Amours de Jupiter et d’Io			
154387	154384	1000474	Anne Boleyn			
136786	109861	1000493	Antiochus et Cléopâtre			
155783	155780	1000555	Ariane			
149113	149111	1000682	Arlequin cru fou sultane et Mahomet			
134951	134949	1000844	Arlequin janséniste	ou Critique de la Femme docteur		
147311	147309	1001077	Artistote amoureux	ou le Philosophe bridé		
154450	154448	1001080	Arvire et Evalina			
136228	136226	1001114	Atine et Zamorin	ou l’Amour turc		
162475	162472	1001123	Atys	ou Arlequin Atys		
134603	134600	1004496	L’Auteur superstitieux à propos			
155288	155285	1001174	Bacchus et Erigone			
166146	166143	1001185	Bajazet Ier cinquième des Turcs			
157474	157471	1001773	Belphégor	ou la Descent d’Arlequin aux enfers		
149458	149455	1008563	Le Billet perdue			
149354	149351	1005806	La Bohémienne			
158300	158297	1001823	Bonne renommé vaut mieux que ceinture dorée			
158087	158084	1001865	Bursiris			
167184	167181	1001892	Caius Fabritus			
165296	165293	1001901	Calisthène	ou le Philosophe amoureux		
162479	162476	1001900	Calisthène			
157596	110143	1008794	Le Caprice et la ressource			
156364	156361	1001982	Catalina			
167598	105010	1001987	Catilina	ou Rome sauvée		
139690	139687	1002023	Celse martyr			
167095	167092	1002054	Chaque homme son caractère			
149518	149515	1008868	Le Chasseur et les jouers			
148420	148418	1002097	Cicercule vierge et martyr			
148184	148182	1002238	Compliment			
154529	154526	1002240	Compliment à M. Le Noir à l’ouverture de la Foire Saint-Laurent			
154658	154655	1002243	Compliment au parterre à la clôture du Théâtre Italien			
146375	146372	1002259	Compliment de clôture			
147330	147328	1002259	Compliment de clôture			
161886	161883	1002259	Compliment de clôture			
166801	166798	1002279	Compliment de clôture de la Foire Saint Germain dernière			
166805	166802	1002294	Compliment de la clôture de la Foire Saintt Laurent			
151774	151771	1002296	Compliment de Moulinet au public			
152080	152077	1009016	Le Compliment pour la clôture du théâtre			
164146	164143	1002335	Compliment prononcé par le Sr Riccoboni à la clôture de la Comédie Italienne le 9 avril 1734			
152641	152638	1009028	Le Comte d’Olsbach	ou le Probité récompensée		
167609	167606	1009032	Le Comte de Boursoufle	ou Mademoiselle de la Cochonnière		
147535	147532	1009034	Le Comte de Gabalis et les peuples élémentaires			
139987	139984	1002344	Conaxa	ou les Gendres dupés		
166734	166731	1002400	Cornélie mère des Grecques			
155401	155398	1006145	La Critique de la Fausse anthipathie			
163833	163830	1002547	Defaute du serpent Python par Apollon			
163711	109506	1002557	Démocrite			
164796	122490	1009313	Le Devin de village			
147017	147014	1002666	Divertissement exécuté par les demoiselles de l’Enfant-Jésus			
140664	140661	1002710	Dom Basilique de Bernafasse			
167858	167855	1002711	Dom Carlos			
140675	140672	1002714	Dom Quichotte de la Manche chevalier errant espagnol révolté			
167626	167623	1002744	Don Pèdre roi de Castille			
153257	108546	1009414	Le Double tour	ou le Prêtre rendu		
166874	166871	1009430	Le Duc de Montmout			
134518	134515	1009431	Le Duc de Montmouth			
152662	152659	1002852	Emile Galotti			
154462	154460	1002853	Emilie			
162506	162503	1013112	Les Enfants de joie			
158049	158046	1004796	L’Enlèvement de la châsse de St. Florent patron de la ville de Roye fait par ordre de Louis XI l’an 1475			
154547	154544	1004821	L’Enrôlement supposé			
156045	156043	1004833	L’Enthousiasme			
166352	166349	1013149	Les Epoux par chicanne			
147554	147552	1006363	La Fausse inconstance	ou le Triomphe de l’honnêté		
141259	141256	1009480	Le Faux ami	ou Prenez garde à qui tu te fies		
134959	134957	1006442	La Femme docteur	ou la Théologie janséniste tombée en quenouille		
136979	136977	1003034	Féodor et Lisinka	ou Novogorod sauvée		
165822	165819	1003044	Fête à l’occasion du marriage de Monseigneur le comte d’Artois avec Marie Thérèse			
156927	127191	1003073	Fête villageoise donné dans un hameau pour la réception de Mademoiselle			
134177	134175	1006724	La Foire des poètes	ou l’Île du divorce		
148495	148492	1003132	Fragments composés de l’acte d’Euthyme et Lyris et de celui d’Arnéris	ou les Isies		
136140	136138	1003134	Fragments de Mr de Lulli			
157207	157204	1003147	Frédéric			
147459	147457	1003199	Gésoncour et Clémentine			
156392	156389	1003303	Hamlet prince de Danemarc			
158119	158116	1003304	Hamlet prince de Dannemarck			
158135	158132	1003347	Henri VI 1ère partie			
158139	158136	1003348	Henri VI 2e partie			
158143	158140	1003349	Henri VI 3e partie			
156396	156393	1003362	Henry VI			
152965	105939	1003375	Hercule filant			
161098	128095	1005024	L’Hermite	ou l’Éclipse		
147909	147906	1005109	L’Heureux jour			
157211	157208	1003400	Hipocrate amoureux			
142961	142958	1003429	Histoire véritable présentée sous le titre : Le Mariage rompu			
150306	150303	1005155	L’Hommage du cœur			
161618	161615	1005180	L’Homme dangereux			
165607	110462	1005324	L’Ile sauvage			
135534	129142	1005326	L’Ile sonante			
157505	109999	1005376	L’Impromptu de la folie			
152972	152969	1013528	Les Incas du Pérou			
147930	147927	1003704	Jeannette	ou les Battus ne payent pas l’amende		
158549	121297	1003726	Jérusalem délivrée			
167505	167502	1009833	Le Jeune Macchabée			
142566	142563	1006968	La Joie des Halles conversation entre Mme Giroflée Mme Bouquetière Mme Saumon Mme de Marée et M. Jacquot la Grosse-Patte marinier sur le joyeux avènement du Roi à la couronne			
142570	142567	1006971	La Joie universelle des Français dialogue dur l’heureuse accouchement de la Reine et sur la naissance de Mgr le Dauphin			
157394	157391	1003798	Judith et Suzanne			
138086	138083	1003915	L’Allamagne délivrée	ou Espèce de petits tragédies sur les affaires présentes		
135519	135516	1004674	L’Ecumoire	ou Tanzaï et Néadarné		
151219	151216	1008299	Lagus roi d’Egypt			
167687	167684	1013658	Les Loix de Minos	ou Astérie		
165300	165297	1014743	Marguerite d’Anjou			
163191	163188	1010103	Le Mariage de Barogo	ou Seconde suite Ramoneur prince		
142957	142954	1010198	Le Mariage retardé	ou le Bouquet d’amitié		
135031	109816	1014769	Marius			
153921	125882	1010219	Le Marquis de Tulipano			
167691	167688	1007192	La Mérope française			
159382	159378	1014970	Momus à Saint-Cloud	ou la Revue générale des spectacles de Saint-Cloud		
159749	159745	1015005	Monsieur de Marlborough	ou l’Enchanteur Rossinolet		
157284	157281	1015008	Monsieur de Pintac	ou le Faux connaisseur		
152158	152155	1015029	Moulinet 1er			
150659	122855	1015046	Nadir	ou Thamas-Kouli-Kan		
149099	111980	1015049	Naïs			
167696	167693	1015056	Nanine			
157186	157184	1015088	Nicaize			
163202	163199	1010451	Le Nœud de l’amour			
155304	155301	1015140	Nouveau prologue de Persée			
158464	158461	1005553	L’Occasion fait le laron			
160176	160173	1015229	Orphée et Euridice			
153044	153041	1015253	Ovide et Julie			
151320	151317	1015333	Pas Plus de six plats tableau de famille			
153055	105813	1007547	La Pénélope moderne			
149877	149874	1010666	Le Petit Dom Quichotte			
133969	133966	1010731	Le Philosophe soi-disant			
163075	131401	1013972	Les Philosophes de bois			
160764	160761	1015473	Pierre et Perrette	ou le Galant jardinier		
154637	154634	1015576	Pomponin	ou l’Auteur mystifié		
136322	136319	1015581	Porothée			
153267	108568	1007655	La Précaution ridicule			
137471	137468	1015597	Premier idylle	ou l’Hommage du cœur		
144273	144270	1010900	Le Prisonnier anglais	ou les Effets de la mort		
148401	148399	1010909	Le Prix d’honneur			
134219	120933	1010932	Le Procès des comédiens français et italiens			
161473	161470	1015650	Prologue en vers libre avec un vaudeville représenté pour l’inauguration de la nouvelle salle de spectacle de Saumur le 27 septembre 1788			
153271	153268	1015663	Prologue pour la Foire St. Germain			
134965	134963	1014076	Les Quakres français	ou les Nouveaux trembleurs		
155597	155594	1007820	La Rencontre imprévu	ou la Surprise des amants		
154407	127945	1011052	Le Rendezvous			
159005	159003	1011186	Le Réveil de Thalie			
135343	135340	1011222	Le Rival par amitié	ou Frontin quakre		
162553	108228	1007890	La Robe de dissention	ou le Faux prodige		
150924	150920	1014190	Les Ruses de l’amour	ou les Repentirs favorables		
148217	148215	1015995	Sans adieu			
152600	152597	1016001	Sanson			
162444	162441	1014229	Les Savoyards	ou la Continance de Bayard		
148105	148102	1011333	Le Sculpteur	ou la Femme come il y en a peu		
164507	131669	1011350	Le Seigneur bienfaisant			
159266	130764	1016094	Silvain			
156164	156161	1016097	Silvie	ou le Jaloux		
147611	122671	1016208	Tarare			
160699	120077	1016221	Téglis			
163082	163079	1011621	Le Temps de la folie			
145376	145373	1016302	Thircis			
167748	167745	1008136	La Tragédie de Sémiramis			
166035	166032	1014349	Les Travaux d’Uylsse			
145517	145514	1011722	Le Triomphe de l’amour conjugal sous le règne de Louis XVI	ou la Fête de la félicité		
165338	110465	1014417	Les Trois rivaux			
156147	156144	1008154	La Turquie			
161648	122622	1014448	Les Tuteurs			
151037	151034	1016481	Urbélise et Laval	ou la Journée aux aventures		
134301	134299	1016519	Vercingétorixe			
159271	124520	1016564	Wenceslas			
167570	167567	1016638	Zeuxius et Parrhasius			
156292	156289	1016670	Zulima			
328431	137185	1003904	L’Aimable vieillard			
320484	168679	1001688	Ballet extravagant			
306943	170447	1005805	La Bœste de Pandore			
334305	137266	1010966	Le Protée	ou l’Homme de tout caractère		
334297	137273	1016035	Scènes du Tracassier			
334299	137282	1011959	Le Vindicatif			
320482	168679	1001688	Ballet extravagant			
321657	113282	1005163	L’Homme à bonnes fortunes			
320620	137197	1001096	Astrée			
137260	121029	1010410	Le Mystère	ou les Fêtes de l’inconnu		
320618	137261	1013826	Les Noces et le charivari			
347121	134299	1016519	Vercingétorixe			
333443	135516	1004674	L’Ecumoire	ou Tanzaï et Néadarné		
346873	346871	1003848	L’Abbé d’Epée			
327487	169964	1003861	L’Absent de chez soi			
304885	172314	1012083	Les Ages du Monde, ballet			
305275	172314	1012083	Les Ages du Monde, ballet			
330324	168108	1000363	Alphonce et Aquitime	ou le Triomphe de la foi		
308033	172322	1012097	Les Amantes			
306735	138242	1004077	L’Ami de la cour			
306861	138242	1004077	L’Ami de la cour			
306864	138260	1000414	Aminte			
412403	203653	1004197	L’Amour filial	ou les Deux Suisses		
307663	168152	1000429	Amours de Merlin			
307960	170089	1004365	L’Apoticaire dévalisé			
152838	112688	1000735	Arlequin Enée	ou la Prise de Troyes		
324664	121872	1001107	Athalie			
324667	121872	1001107	Athalie			
324669	121872	1001107	Athalie			
324671	121872	1001107	Athalie			
324673	121872	1001107	Athalie			
324675	121872	1001107	Athalie			
324677	121872	1001107	Athalie			
305649	170125	1004483	L’Autel de Lyon consacré à Louis-Auguste et placé dans le temple de la Gloire, ballet			
306059	174536	1001253	Ballet dansé à Essones			
306587	306583	1001286	Ballet dansé en intermèdes des Folies de Cardenio			
147530	147527	1001347	Ballet de la jeunesse			
330856	323811	1001631	Ballet donné par la marquis de Bedmar			
306405	168679	1001688	Ballet extravagant			
307286	168954	1002139	Clénide			
331689	331685	1002184	Colas et Colinette			
317563	122062	1008960	Le Collier de perle et la harangue			
307273	175290	1009041	Le Comte de Rocquefœilles	ou le Docteur extravagant		
318703	170545	1006115	La Cour bergère	ou l’Arcadie de Sidney		
323872	117383	1002473	Cythère assiégée			
323852	117383	1002474	Cythère assiégée (Assortiments)			
329849	106871	1006208	La Déroute des deux Pamela			
320053	170595	1006218	La Descente d’Orphée aux enfers	ou le Mariage d’Orphée et d’Euridice, ou La Grande journée des machines		
328185	172522	1012790	Les Deux Alcandres	ou les Deux semlables		
331556	122490	1009313	Le Devin de village			
331586	122490	1009313	Le Devin de village			
331624	122490	1009313	Le Devin de village			
318699	318697	1009331	Le Dictateur romain			
318701	318697	1009331	Le Dictateur romain			
305568	172550	1013012	Les Differents plaisirs des Saisons, ballet			
330756	169251	1002641	Dispute pour la bienséance et habillements entre les nations, ballet			
307191	125359	1002797	Ecole des mères			
152923	152920	1013064	Les Ecriteaux des fêtes parisiennes			
307387	307379	1004676	L’Ecuyer	ou les Faux nobles mis au billon		
305460	170171	1004742	L’Empire du Soleil, ballet			
335854	154544	1004821	L’Enrôlement supposé			
395559	394765	1004848	L’Envieux (comédie en 5 actes et en vers […] Non imprimée [Texte imprimé ])			
306997	121869	1002953	Esther			
327309	121869	1002953	Esther			
327311	121869	1002953	Esther			
329250	329247	1002990	Exposition d’un Divertissement nouveau de chants et de danses			
343386	120930	1003067	Fête galante			
318335	114552	1013295	Les Fêtes de l’Hymen et de l’Amour	ou les Dieux d’Egypte		
141709	141706	1003136	Fragments representés devant le Roi à Fontainebleau octobre 1754			
306371	170824	1006816	La France victorieuse sous Louis le Grand, ballet			
307833	175486	1013459	Les Grâces			
306129	169381	1003370	Hercule amoureux, avec un ballet royal			
321649	113282	1005163	L’Homme à bonnes fortunes			
321651	113282	1005163	L’Homme à bonnes fortunes			
321653	113282	1005163	L’Homme à bonnes fortunes			
321655	113282	1005163	L’Homme à bonnes fortunes			
158864	158862	1013511	Les Huit philosophes errants	ou Nouvelles découvertes de Voltaire de Maupertuis de Montesquieu du marquis d’Argens de l’abbé Prévost de Crébillon de Marivaux et du chevalier de Mainvilliers		
330049	170267	1005266	L’Hymen d’Hercule avec la déesse Hébé, ballet			
164926	164923	1005288	L’Idylle de Saint-Cyr			
307889	170353	1005476	L’Injustice punie			
318895	307250	1005479	L’Innocence découverte			
161028	161025	1003559	Intermède de marionettes suivi d’un combat naval et d’un siège de ville, exécuté à la Cour devant Monseigneur le Duc de Bourgogne			
363105	174374	1013577	Les Ivrognes, comédie satiri-burlesque			
308041	303490	1014658	Lydie, fable champêtre			
319221	173010	1014695	Madonte			
321842	173049	1014722	Marc Antoine	ou Cléopâtre		
321844	173049	1014722	Marc Antoine	ou Cléopâtre		
321846	173049	1014722	Marc Antoine	ou Cléopâtre		
308386	121928	1010104	Le Mariage de Cambise			
307648	170929	1007154	La Mélize			
307651	170929	1007154	La Mélize			
307653	170929	1007154	La Mélize			
307493	307491	1007215	La Mizaille à Tauni			
146925	146922	1007365	La Naissance de la comédie			
306185	171062	1007370	La Naissance de Vénus			
333783	167693	1015056	Nanine			
323899	151751	1015111	Ninette à la cour	ou le Caprice amoureux		
143477	143474	1013857	Les Nouvelles fêtes vénitiennes et divertissements comiques			
331886	331872	1010514	Le Panégyrique de l’Ecole des femmes			
304856	303251	1015563	Polydor			
320638	121493	1015712	Pyrandre et Lisimène	ou l’Heureuse tromperie		
323855	176004	1015749	Ragonde			
308031	308029	1011021	Le Ravissement de Céfale			
148980	148977	1011117	Le Retour de la paix dans les Pay-Bas			
327611	173739	1015852	Rodogune			
306117	172864	1014207	Les Saisons, ballet			
159264	124373	1014250	Les Sibarites			
156600	127578	1016129	Sophie et Francourt			
330764	172881	1014271	Les Souffleurs			
330766	172881	1014271	Les Souffleurs			
321702	121833	1016161	Stratonice	ou le Malade d’amour		
321704	121833	1016161	Stratonice	ou le Malade d’amour		
307457	307455	1016304	Thirsis et Uranie	ou la Chasteté invincible		
163362	163359	1016385	Tout pour l’amour	ou le Mode bien perdu		
320061	171287	1008141	La Tragédie mahométiste			
323901	153537	1011762	Le Triomphe de la musique italienne			
319974	319972	1016440	Tyr et Sidon, tragédie	ou les Funestes amours de Belcar et Méliane		
326395	174315	1016485	Vacances			
328134	205110	1008162	La Vallée de Montmorency	ou Jean-Jacques Rousseau à l’hermitage		
329256	329253	1008240	La Veuve persécutée			
330353	330350	1008252	La Victoire spirituelle de la glorieuse Sainte Reine remportée sur le tiran Olibre			
333758	333753	1016390	2000134			Tracollo, medico ignorante
