1	acrobate		acrobat		sauteur	59	
2	acteur	actrice	actor	actress		59	
3	dompteur	dompteuse	animal trainer			59	
4	architecte		architect			20	
5	auteur	autrice	author			20	auteur
6	danseur	danseuse	dancer			59	
7	scénographe		designer			59	
8	chef de troupe		director			59	
9	marionettiste		marionettist			59	
10	musicien	musicienne	musician			59	
11	peintre		painter			20	peintre
12	montreur	montreuse	showman	showwoman	entrepreneur	59	
13	graveur	graveuse	engraver			20	
14	compositeur	compositrice	composer			59	
15	traducteur	traductrice	translator			20	traducteur
16	chorégraphe		choreographer			59	
17	opérateur	opératrice	operator		également utilisé pour un dentiste	59	
19	chanteur	chanteuse	singer			59	
20	métiers en partie étrangers aux arts de la scène		other profession			NULL	
21	machiniste		machinist			59	
23	caissier	caissière	cashier			59	
24	chef d’orchestre		conductor			59	
25	costumier	costumière	wardrobe master	wardrobe mistress		59	
26	gagiste					59	
27	placeur	placeuse	usher			59	
28	régisseur	régisseuse	stage manager			59	
29	souffleur	souffleuse	prompter			59	
30	éditeur	éditrice	publisher			20	
31	critique		critic			20	
33	libraire		bookseller			20	libraire
34	imprimeur	imprimeuse	printer			20	imprimeur
36	artisan		artisan			20	artisan
38	corps enseignant		teaching profession			20	corps enseignant
39	diplomate		diplomat			20	diplomate
40	ecclésiastique		ecclesiastic			20	ecclésiastique
41	membre du clergé		clergyman		prêtre catholique	40	membre du clergé
42	pasteur		minister		protestant ; lié à un endroit	40	pasteur
43	prédicateur		preacher		itinérant ; utilisé pour les prédicateurs protestant	40	prédicateur
44	prélat		prelate		hautes fonctions ecclésiastiques dans la hiérarchie catholique	40	prélat
45	étudiant		student		étudiant, élève	20	étudiant/élève
46	homme politique	femme politique	governor		par exemple : syndic de la ville	20	gouverneur
47	souverain	souveraine	man of power	woman of power	personne qui a hérité d'une autorité sur un territoire ; chef héréditaire d'un état ; tête couronnée ; souverain	20	homme ou femme de pouvoir
50	magistrat		magistrate			20	magistrat
51	métiers de la banque		banking profession			20	métier de la banque
52	métiers du commerce		trade profession			20	métier de commerce
54	métiers du droit		law practitioner			20	praticien du droit
55	notaire		notary			54	notaire
56	métiers de la médecine		medical practitioner			20	praticien de médecine
57	soldat		soldier			20	soldat
58	homme d'état	femme d'état			"""ceux qui dirigent l'État et détiennent le pouvoir exécutif"""	20	
59	métiers des arts de la scène					NULL	
